<?xml version="1.0" encoding="utf-8"?>
<!-- Generator: Adobe Illustrator 19.1.0, SVG Export Plug-In . SVG Version: 6.00 Build 0)  -->
<!DOCTYPE svg PUBLIC "-//W3C//DTD SVG 1.1//EN" "http://www.w3.org/Graphics/SVG/1.1/DTD/svg11.dtd">
<svg version="1.1" xmlns="http://www.w3.org/2000/svg" xmlns:xlink="http://www.w3.org/1999/xlink" x="0px" y="0px" width="240px"
	 height="240px" viewBox="0 0 240 240" style="enable-background:new 0 0 240 240;" xml:space="preserve">
<style type="text/css">
	.st0{display:none;}
	.st1{display:inline;}
	.st2{fill:#41ACAC;}
	.st3{fill:#FFFFFF;}
	.st4{fill:none;stroke:#F5F5F5;stroke-width:0.75;stroke-linecap:round;stroke-linejoin:round;}
	.st5{fill:none;stroke:#F5F5F5;stroke-width:1.4;stroke-linecap:round;stroke-linejoin:round;}
</style>
<g id="Ebene_2" class="st0">
	<g class="st1">
		<rect y="0" class="st2" width="240" height="240"/>
	</g>
</g>
<g id="Rahmen">
	<path class="st3" d="M239,1v238H1V1H239 M240,0H0v240h240V0L240,0z"/>
</g>
<g id="Polstermöbel" class="st0">
	<g class="st1">
		<path class="st3" d="M213.3,61.6c-0.1-3.6-3.6-6.4-6.9-7.2h0c-3-0.7-13.2-2-19.6-2.1c-2.6,0-11.7-0.1-22.4-0.1V51h13.1
			c1.8,0,3.2-1.4,3.2-3.2v-6.6c0-1.8-1.4-3.2-3.2-3.2H57.1c-1.8,0-3.2,1.4-3.2,3.2v6.6c0,1.8,1.4,3.2,3.2,3.2h14.2v1
			c-8.6,0-15.5,0.1-18.1,0.3c-1.2,0.1-2.3,0.2-3.5,0.3c-6.4,0.5-13,0.9-16.5,1.7c-3.9,0.9-6.5,3.8-6.5,7.3c0,4.4,0.1,23.1,0.4,26.4
			c0.2,2.4,1.6,6,7.1,8.2l0.4,12.5c0,1.3,0.8,1.5,1.7,1.5h0.6c0.6,0,1.8,0,1.8-1.5l0.3-11.1c1.3,0.3,2.8,0.5,4.4,0.6
			c0.5,0,1,0.1,1.5,0.1l0.1,2.5c0,1.3,1,1.3,1.4,1.3h0.4c0.4,0,1.4,0,1.4-1.2l0.1-2.3c15.5,0.9,42.5,1.1,71.2,1.3h1.5
			c25.3-0.1,49.3-0.3,65.2-1l0.1,2c0,1.3,1,1.3,1.4,1.3h0.4c0.4,0,1.4,0,1.4-1.2l0.1-2.2c2.8-0.1,5.3-0.3,7.5-0.5
			c1.3-0.1,2.4-0.2,3.5-0.4l0.3,11c0,1.3,0.8,1.5,1.7,1.5h0.6c0.6,0,1.8,0,1.8-1.5l0.3-12.1c6.3-2.2,7.8-6.1,8-8.6
			C213.2,84.7,213.4,67,213.3,61.6z M186.8,53.3c1.2,0,2.6,0.1,4,0.2c-2.9,0.9-6.4,3.3-7.3,9.4c-1,7.4-0.2,11.8,0.2,13.4
			c-5.9-0.2-17-0.6-29.5-0.8c-0.3-2.4-1.5-12.4,1.2-22.3C169.8,53.2,183.4,53.2,186.8,53.3z M44,92.1c1-2.3,1.4-8.2,1.6-11.1
			c0-0.5,0.1-0.8,0.1-1.1c5,0.2,51,1.9,70.7,1.9h7.3c19.7,0,65.7-1.7,70.7-1.9c0,0.3,0,0.6,0.1,1.1c0.2,2.9,0.6,8.8,1.6,11.1
			c0.6,1.5,2.7,2.3,4.5,2.7c-11,1.8-35.8,2.2-80.3,2.3h-0.3c-44.5-0.1-69.3-0.5-80.3-2.3C41.3,94.4,43.4,93.7,44,92.1z M36.4,94.2
			l-1.1,0c-0.9-0.3-5.6-1.8-5.9-6.3C29,82,28.8,66.4,29,62.8c0.2-2.9,2.3-4,4-4.4c2.6-0.7,8.8-0.8,10.7,1.2c1.9,2,2.7,4.6,2.9,9.3
			c0.1,2.5,0,5.9-0.4,8.6c-1,0.5-1.5,1.2-1.6,2.2c0,0.3-0.1,0.7-0.1,1.3c-0.2,2.8-0.6,8.7-1.5,10.8C42.3,93.6,38,94.1,36.4,94.2z
			 M196.9,91.7c-0.9-2.1-1.3-8.2-1.5-10.8c0-0.6-0.1-1-0.1-1.3c-0.1-1-0.6-1.8-1.7-2.3c-0.4-2.7-0.5-6-0.4-8.5
			c0.2-4.8,1-7.3,2.9-9.3c1.1-1.2,3.8-1.6,6.3-1.6c1.7,0,3.3,0.2,4.4,0.5c1.7,0.4,3.8,1.6,4,4.4c0.2,3.6,0.1,19.2-0.4,25
			c-0.3,4.6-5,6.1-5.9,6.3l-0.9,0C202,94.1,197.7,93.6,196.9,91.7z M194.1,79.2c-5.6,0.2-51,1.9-70.5,1.9h-7.3
			c-19.5,0-65-1.7-70.5-1.9c0.4-0.8,1.7-1.6,6.6-1.8c4.5-0.2,40.2-1.5,66-1.2h3.1c25.9-0.3,61.6,1,66,1.2
			C192.5,77.6,193.8,78.4,194.1,79.2z M80.5,53c1.1,0,2.2,0,3.3,0c5.5,0,11.1,0,16.4,0c6.1,0,11.8,0,16.1,0v22.1
			c-11-0.1-23.6,0.1-34.6,0.4C82,73,83.1,63,80.5,53z M153.5,75.4c-10.5-0.2-22-0.3-32-0.2h-3c-0.5,0-1,0-1.4,0V53c0.7,0,1.4,0,2,0
			l14.2,0c6.5,0,14,0.1,21.4,0.1C152.1,62.9,153.1,72.7,153.5,75.4z M133.2,52L119,52c-4.6,0-11.4,0-18.9,0c-8,0-16.7,0-24.6,0v-1
			h84.5v1.2C151,52.1,141.3,52.1,133.2,52z M160.8,52.1V51h2.8v1.2C162.7,52.1,161.7,52.1,160.8,52.1z M178.1,39
			c0.9,0.3,1.6,1.1,1.6,2.1v6.6c0,1-0.7,1.9-1.7,2.2c-0.5-0.9-1.7-3.6-1.7-5.8C176.3,41.9,177.5,39.8,178.1,39z M56.4,49.8
			c-0.9-0.3-1.6-1.1-1.6-2.1v-6.6c0-1,0.6-1.8,1.5-2.1c0.6,0.9,1.8,2.9,1.8,5C58.1,46.3,56.9,48.9,56.4,49.8z M57.2,50
			c0.6-1.2,1.6-3.7,1.6-5.9c0-2.1-1.1-4.1-1.7-5.2h120.2c-0.7,1-1.7,3-1.7,5.2c0,2.2,1,4.7,1.6,5.9H57.2z M74.8,51v1
			c-0.9,0-1.9,0-2.8,0v-1H74.8z M37.5,108.7L37.5,108.7c0,0.4,0,0.5-0.8,0.5h-0.6c-0.7,0-0.7,0-0.7-0.5l-0.3-12.1
			c0.8,0.3,1.7,0.5,2.6,0.8L37.5,108.7z M47.1,100.7L47.1,100.7c0,0.2,0,0.2,0,0.2c0,0-0.1,0-0.4,0h-0.4c-0.2,0-0.3,0-0.3,0
			c0,0,0,0,0,0c0,0,0-0.1,0-0.2l-0.1-2.4c0.4,0,0.9,0.1,1.3,0.1L47.1,100.7z M188.3,100.7L188.3,100.7c0,0.2,0,0.2,0,0.2
			c0,0-0.1,0-0.4,0h-0.4c-0.2,0-0.3,0-0.3,0c0,0,0,0,0,0c0,0,0-0.1,0-0.2l-0.1-2c0.5,0,0.9,0,1.3-0.1L188.3,100.7z M203.6,108.7
			L203.6,108.7c0,0.4,0,0.5-0.8,0.5h-0.6c-0.7,0-0.7,0-0.7-0.5l-0.3-11.1c1-0.2,1.8-0.4,2.6-0.7L203.6,108.7z M211.9,87.8
			c-0.5,5.2-5.9,8.5-15.2,9.3c-14.2,1.1-44,1.4-76,1.6h-1.5c-31.9-0.2-61.8-0.4-76-1.6c-9.3-0.7-14.7-4-15.2-9.3
			c-0.3-3.3-0.4-21.9-0.4-26.3c0-3.1,2.2-5.5,5.7-6.3c3.4-0.8,10-1.2,16.4-1.7c1.2-0.1,2.4-0.2,3.5-0.3C56.6,53,67.4,53,79.7,53
			c2.7,10.1,1.5,20.3,1.2,22.5c-14.3,0.3-26.1,0.8-28.5,0.9c-2.2,0.1-3.8,0.3-5,0.7c0.5-3.3,0.4-7,0.3-8.2c-0.2-5-1.1-7.7-3.2-10
			c-2.4-2.5-9.2-2.1-11.7-1.5c-1.7,0.4-4.5,1.7-4.7,5.3C27.8,66.4,28,82,28.4,88c0.3,3.4,2.6,5.3,4.4,6.3l-0.1,0l0.3,0.1
			c1.2,0.6,2.3,0.9,2.3,0.9l0,0c1.1,0.2,2.2,0.3,3.3,0.4c10.8,1.9,35.6,2.3,81.2,2.4h0.3c45.8-0.1,70.7-0.5,81.3-2.5
			c1-0.1,2.1-0.2,3.1-0.4l0,0c0.1,0,6.4-1.5,6.9-7.3c0.4-5.9,0.6-21.6,0.4-25.2c-0.2-3.7-3.1-4.9-4.7-5.3c-2.5-0.6-9.3-1.1-11.7,1.5
			c-2.1,2.2-3,4.9-3.2,10c0,1.2-0.1,4.9,0.3,8.2c-1.2-0.3-2.8-0.5-4.9-0.6c-0.6,0-1.6-0.1-3.1-0.1c-0.4-1.3-1.3-5.7-0.3-13.3
			c1.1-8,7.1-9.1,9.3-9.2c5.2,0.4,10.6,1.2,12.6,1.6h0c3,0.7,6.1,3.1,6.2,6.2C212.4,67,212.2,84.7,211.9,87.8z"/>
	</g>
</g>
<g id="Tische" class="st0">
	<g class="st1">
		<path class="st3" d="M211,50.4c-0.1-0.1-0.3-0.2-0.4-0.1l-0.3,0l-36-12.3c-0.1,0-0.1,0-0.2,0L36.6,50.8l-3.3,0
			c-0.3,0-0.5,0.2-0.5,0.5v1.6c0,0.2,0.1,0.3,0.2,0.4L56.4,67v43.5c0,0.1,0.1,0.3,0.2,0.4c0.1,0.1,0.2,0.1,0.4,0.1
			c35.8-3.2,40.5,5.9,40.6,6c0,0,0,0.1,0.1,0.1v3.7c0,0.1,0.1,0.3,0.2,0.4c0.1,0.1,0.2,0.1,0.3,0.1c0,0,0,0,0,0
			c2.8-0.1,5.5-2.3,5.6-2.4c0.1-0.1,0.2-0.2,0.2-0.4V65.4c0-0.6-0.3-1-0.7-1.4l28.7-3l0,38.9c1.2,9.7,29.9,10.4,37.4,10.4
			c0.8,0,1.3,0,1.6,0c0,0,0,0,0,0c0,0,0,0,0.1,0c0,0,0,0,0.1,0l5.3-1.2c0.2-0.1,0.4-0.3,0.4-0.5V58.5c0-0.3-0.2-0.5-0.5-0.5l-8.8,0
			v-0.8l43.3-4.6c0.3,0,0.4-0.2,0.4-0.5v-1.3C211.2,50.6,211.1,50.5,211,50.4z M208.9,50.6L59.6,66.3c-0.1-0.1-0.2-0.1-0.3-0.1
			c0,0-0.1,0-0.1,0L35,51.7l139.2-13L208.9,50.6z M33.8,51.9l25,15v0.4l-25-14.6V51.9z M71,109.3c-4,0-8.5,0.2-13.6,0.6V67.6l1.6,1
			c0.1,0,0.2,0.1,0.3,0.1c0,0,0,0,0.1,0l32.3-3.4c0,0,0,0,0,0c3.8,0.1,5.6,2,6,2.5v47.8C95.6,113.4,89.4,109.3,71,109.3z
			 M98.6,120.2V67.8l4.3-1.7v52.2C102.3,118.7,100.5,120,98.6,120.2z M102.8,65.1l-4.5,1.8c-0.4-0.5-1.4-1.4-3.2-2.1l2.4-0.3l4-0.4
			C101.9,64.3,102.6,64.6,102.8,65.1z M152.2,108.2c-12.1-1.5-18.8-4.4-19.3-8.4v-39l17.9-1.9c10.3,0.7,16.1,0.9,18.7,0.9
			c0.4,0,0.7,0,1,0v49.4C168.4,109.2,160.3,109.2,152.2,108.2z M176.2,58.5l-4.8,0.8l0,0l-0.5,0.1c0,0-0.2,0-0.5,0l0,0
			c-0.6,0-1.9,0-3.9,0h0c-0.2,0-0.4,0-0.7,0c-0.3,0-0.5,0-0.8,0c-0.2,0-0.3,0-0.5,0c-0.4,0-0.7,0-1.1,0c0,0,0,0,0,0l0,0
			c-2.6-0.1-5.9-0.3-10-0.5l2.1-0.2l1.8,0c0,0,0,0,0,0L176.2,58.5z M162.9,57.7c-0.3,0-0.7,0-1.3,0l1.3-0.1V57.7z M171.4,109.1V59.7
			l4.3-0.7v49.1L171.4,109.1z M166.5,58l-2.7-0.1v-0.3l2.7-0.3V58z M210.2,51.6L101.6,63.1c0,0,0,0,0,0l-4.2,0.5l-37.6,4V67
			l149.7-15.8l0.7,0V51.6z"/>
	</g>
</g>
<g id="Stühle" class="st0">
	<g class="st1">
		<path class="st4" d="M116.1,72.8c0,0,0.3,9,0.1,14.3c-0.2,5.3,0,33.8,0,33.8s1,0.8,1.8,0.2l0.9-35.6l0-13.3"/>
		<path class="st4" d="M121.5,71.1l1.1,10c0,0-0.8,0.6-1.4,0.3l-1.4-9.6"/>
		<path class="st4" d="M136.8,65.5c0,0,3.6-1.1,4.1,2.8c0.4,4,4.6,25.9,4.6,25.9s1.4,0.6,1.7-0.5l-4.5-26c0,0-0.1-4.3-5.6-4.2"/>
		<path class="st4" d="M96.9,63.6c0,0-1.7,0.6-2.2,3.8c-0.4,3.1-3,29.9-3,29.9s1.1,0.6,1.6,0.2L96.6,68c0,0,0.1-2.9,1.2-3.1"/>
		<path class="st5" d="M118.6,29.9c0.7-2,1.6-6,6.3-5.9c4.7,0.2,11.6-0.8,17.7-0.3c6.1,0.5,5.9,3.2,5.8,6c-0.1,2.8,0.8,9.6-3.3,12.6
			c-4.2,3-9.5,18.1-8.5,20c0.9,1.8,1.4,2.7-1,3.9c-2.4,1.2-11,3.8-13,4.5c-1.9,0.7-5,3-10.4,1.4c-5.3-1.5-9.7-3.4-13.2-6.6
			c-3.5-3.3-3.4-5.8,1.2-6.8c4.6-1,11.8-2.4,15.6-2.2c3.8,0.2,9.5,0.8,9.4-5.6c-0.1-6.4-3.5-7.1-5.7-12.9
			C117.1,32.2,118.6,29.9,118.6,29.9z"/>
	</g>
</g>
<g id="Kastenmöbel" class="st0">
	<g class="st1">
		<g>
			<circle class="st3" cx="115.8" cy="41.6" r="1.1"/>
		</g>
		<g>
			<circle class="st3" cx="115.8" cy="58.7" r="1.1"/>
		</g>
		<g>
			<circle class="st3" cx="115.8" cy="76.6" r="1.1"/>
		</g>
		<g>
			<circle class="st3" cx="115.8" cy="93.6" r="1.1"/>
		</g>
		<g>
			<circle class="st3" cx="124.2" cy="41.6" r="1.1"/>
		</g>
		<g>
			<circle class="st3" cx="124.2" cy="58.7" r="1.1"/>
		</g>
		<g>
			<circle class="st3" cx="124.2" cy="76.6" r="1.1"/>
		</g>
		<g>
			<circle class="st3" cx="124.2" cy="93.6" r="1.1"/>
		</g>
		<path class="st3" d="M185.7,31.7H54.3c-0.4,0-0.7,0.3-0.7,0.7v71c0,0.4,0.3,0.7,0.7,0.7h8l0.9,5.3c0,0.2,0.2,0.3,0.4,0.3h2.9
			c0.2,0,0.4-0.2,0.4-0.4v-5.3h106.4v5.3c0,0.2,0.2,0.4,0.4,0.4h2.9c0.2,0,0.3-0.1,0.4-0.3l0.9-5.3h8c0.4,0,0.7-0.3,0.7-0.7v-71
			C186.4,32,186.1,31.7,185.7,31.7z M185,67.6h-64.7V50.5H185V67.6z M119.6,67.6H55V50.5h64.7V67.6z M55,68.3h64.7v17.1H55V68.3z
			 M120.4,68.3H185v17.1h-64.7V68.3z M185,33.1v16.7h-64.7V33.1H185z M119.6,33.1v16.7H55V33.1H119.6z M66.1,108.9h-2.2l-0.8-4.9
			h3.1V108.9z M55,102.7V86.2h64.7v16.5H55z M176.2,108.9h-2.2v-4.9h3.1L176.2,108.9z M120.4,102.7V86.2H185v16.5H120.4z"/>
	</g>
</g>
<g id="accessoires" class="st0">
	<g class="st1">
		<path class="st3" d="M170.9,83.4c-2.2-3.3-4.4-6.7-4.9-9.9c-0.4-3.2-0.4-5.8-0.3-7.8c0.6-0.3,1-0.7,1-1.2c0-0.2-0.2-0.4-0.4-0.4
			s-0.4,0.2-0.4,0.4c0,0.1-0.1,0.2-0.2,0.3c0.2-1.6,0.4-2.6,0.5-2.9c0.3-0.2,0.5-0.4,0.5-0.7c0-1.7-6.6-1.7-7.3-1.7
			c-0.3,0-1.3,0-2.5,0.1V31.4c0-0.1,0-0.1-0.1-0.2c0.1-0.1,0.1-0.2,0.1-0.3c0-0.2-0.2-0.3-0.4-0.3l-9.8-0.3c0,0-0.1,0-0.1,0l-12.8,3
			c-0.1,0-0.2,0.1-0.3,0.2c-0.2,0.1-0.4,0.2-0.4,0.5v75c0,0.3,0.2,0.5,0.5,0.5h13.9c0.3,0,0.5-0.2,0.5-0.5v-2.4
			c1.9,1.9,4.6,3.2,8.1,3.2h6.3c9.4,0,12.2-8.8,13.1-14.1C176.4,91.7,173.6,87.4,170.9,83.4z M165.1,65.2c-1.1,0.4-2.9,0.8-5.6,0.8
			c-2.6,0-4.5-0.4-5.6-0.8c-0.1-1.3-0.3-2.3-0.4-2.9c2,0.6,5.4,0.6,6,0.6c0.5,0,4,0,6-0.6C165.4,62.9,165.2,63.9,165.1,65.2z
			 M166.1,61.2c-0.3,0.4-2.7,1-6.5,1c-3.3,0-5.5-0.4-6.3-0.8c0,0-0.1,0-0.1-0.1c-0.1,0-0.1-0.1-0.2-0.1c0.2-0.4,2.5-1,6.6-1
			C163.4,60.3,165.7,60.9,166.1,61.2z M152.2,61.2c0,0.3,0.2,0.5,0.5,0.7c0.1,0.3,0.3,1.3,0.5,2.9c-0.1-0.1-0.2-0.2-0.2-0.3
			c0-0.2-0.2-0.4-0.4-0.4s-0.4,0.2-0.4,0.4c0,0.5,0.4,0.9,1,1.2c0.1,2,0.2,4.6-0.3,7.8c-0.4,3.1-2.6,6.5-4.8,9.7v-49l8-2.7v28.2
			C154.3,59.9,152.2,60.3,152.2,61.2z M146.8,31.1l7.7,0.2l-6.6,2.2c-0.1,0-0.1,0-0.2,0h-11.3L146.8,31.1z M147.2,105.6v2.9h-12.9
			v-74h12.9v49.8c0,0.1,0,0.2,0.1,0.3c-2.4,3.7-4.7,7.5-4.1,11.1c0.5,2.9,1.6,6.8,4,9.8C147.2,105.5,147.2,105.5,147.2,105.6z
			 M175,95.5c-0.8,5-3.5,13.4-12.4,13.4h-6.3c-3.7,0-6.3-1.5-8.2-3.6c0-0.1-0.1-0.2-0.2-0.3c-2.4-2.9-3.5-6.8-3.9-9.6
			c-0.6-3.7,2.1-7.8,4.8-11.7c2.2-3.4,4.5-6.8,5-10.2c0.4-3,0.4-5.6,0.3-7.5c1.4,0.5,3.5,0.7,5.5,0.7c2,0,4.1-0.2,5.5-0.7
			c-0.1,2-0.1,4.5,0.3,7.5c0.4,3.4,2.7,6.8,5,10.2C172.9,87.7,175.6,91.8,175,95.5z"/>
		<path class="st3" d="M129.6,48.9c-0.2-0.1-0.4-0.1-0.5,0l-0.3,0.2l-15.6,4.4c-0.1,0-0.2,0.2-0.3,0.3l-0.9,6.4
			c-0.1,0.1-0.2,0.3-0.2,0.4l2.6,22.1c-0.8-0.8-1.6-1.4-2.6-2c-0.3-1.1-5.8-1.6-8.7-1.6c-2.9,0-8.6,0.5-8.9,1.6
			c-2.5,1.6-4.4,3.8-5.7,6.4c-1.4-1.6-3-2.7-4.8-3.3c0-0.1-0.1-0.1-0.1-0.2c0.2-0.1,0.2-0.3,0.2-0.5c0-0.6-0.9-0.9-2-1
			c-0.1-1-0.4-4.3-1.3-8.2C81,66.1,83,54.3,90.8,47.8c2.3,2,6.3,2.3,8.3,2.3c0.4,0,0.6,0,0.8,0c0,0.7,0.5,1.4,1.2,1.6
			c0.9,0.2,1.7-0.4,1.9-1.2c0.2-0.9-0.4-1.7-1.2-1.9c-0.8-0.2-1.6,0.3-1.8,1c-0.8,0-5.5,0.2-8.3-1.7c0.9-0.2,3.4-1,4.4-2
			c0.2,0.1,0.4,0.2,0.6,0.3c0.9,0.2,1.7-0.4,1.9-1.2s-0.4-1.7-1.2-1.9c-0.9-0.2-1.7,0.4-1.9,1.2c-0.1,0.5,0,0.9,0.3,1.3
			c-0.9,0.9-3.5,1.7-4.5,1.9c0,0,0,0-0.1,0.1c0,0-0.1-0.1-0.1-0.1c0-0.1,0-0.2,0-0.2c0,0-0.1,0-0.1,0c0,0,0.1-0.1,0.1-0.2
			c0,0,0-3.1,2.4-4.8c0.2,0.1,0.4,0.2,0.6,0.3c0.9,0.2,1.7-0.4,1.9-1.2c0.2-0.9-0.4-1.7-1.2-1.9c-0.9-0.2-1.7,0.4-1.9,1.2
			c-0.1,0.4,0,0.9,0.2,1.2c-2.3,1.7-2.5,4.5-2.6,5.1c-0.1-0.2-0.3-0.3-0.4-0.5c-1.1-2-0.4-4.9,2.2-8.7c0,0,0.1,0,0.1,0
			c0.9,0.2,1.7-0.4,1.9-1.2c0.2-0.9-0.4-1.7-1.2-1.9c-0.9-0.2-1.7,0.4-1.9,1.2c-0.1,0.6,0.1,1.2,0.6,1.6c-2.7,3.9-3.4,6.9-2.2,9.1
			c0.2,0.3,0.4,0.6,0.6,0.9c-7.5,6.2-9.7,17.1-10.3,25c-1.6-5.5-4.5-11.8-10-15.1c0.1-0.2,0.2-0.3,0.3-0.5c0.9-1.7,0.2-4.1-2.1-7
			c0.3-0.3,0.5-0.7,0.4-1.2c-0.2-0.6-0.8-1-1.5-0.9c-0.6,0.2-1,0.8-0.9,1.5s0.8,1,1.5,0.9c0,0,0,0,0,0c2.1,2.7,2.8,4.9,2.1,6.5
			c-0.2-0.8-0.7-2.4-2.1-3.3c0.1-0.3,0.2-0.6,0.1-0.9c-0.2-0.6-0.8-1-1.5-0.9s-1,0.8-0.9,1.5c0.2,0.6,0.8,1,1.5,0.9
			c0.2,0,0.3-0.1,0.4-0.2c1.8,1.2,2,3.5,2,3.6c0,0-0.1,0-0.1,0.1c0,0,0,0,0,0.1c0,0-0.1,0.1-0.1,0.1c-0.9-0.2-2.7-0.7-3.3-1.3
			c0.2-0.3,0.2-0.6,0.1-0.9c-0.2-0.6-0.8-1-1.5-0.9c-0.6,0.2-1,0.8-0.9,1.5s0.8,1,1.5,0.9c0.1,0,0.3-0.1,0.4-0.2
			c0.7,0.7,2.3,1.1,3.2,1.3c-2.1,1.4-5.6,1.5-6.1,1.5c0,0,0,0,0,0c-0.2-0.5-0.8-0.8-1.4-0.7c-0.6,0.2-1,0.8-0.9,1.5
			c0.2,0.6,0.8,1,1.5,0.9c0.5-0.1,0.9-0.6,0.9-1.2c0.8,0,4.7-0.1,6.7-1.9c0.1,0,0.2-0.1,0.2-0.2c0,0,0-0.1,0.1-0.1
			c5.9,3.5,8.8,10.6,10.2,16.3c-0.2,4.4,0.1,7.6,0.1,8.1c-1.1,0.1-2.2,0.3-2.2,1c0,0.2,0.1,0.3,0.2,0.5c-0.1,0-0.1,0.1-0.1,0.2
			c-4.7,1.5-8.2,6.7-8.2,12.8c0,5.3,2.6,10,6.6,12.2c1.3,0.7,2.6,0.7,4,0.7l0.4,0l0.5,0c0.2,0,0.3,0,0.5,0c1.2,0,2.4-0.1,3.5-0.6
			c1.9-1,3.6-2.6,4.7-4.7c1.2,1.6,2.8,3,4.6,4.2c2.5,1.5,5.3,1.5,8.3,1.5c0,0,0.1,0,0.1,0h0.1c3.1,0,6,0,8.6-1.6
			c2.1-1.3,3.9-3.1,5.2-5.1l0.9,5.9c0,0.2,0.2,0.4,0.5,0.4h11.1c0.3,0,0.5-0.2,0.5-0.5V49.3C129.9,49.1,129.8,49,129.6,48.9z
			 M113.7,54.2l13.1-3.7l-13.8,9.2L113.7,54.2z M110.9,80.8c-1,0.3-3.8,0.5-7.8,0.5c-3.7,0-6.4-0.2-7.6-0.5c0,0,0-0.1,0-0.1
			c1.2-0.4,4-0.9,7.7-0.9C107.1,79.9,109.9,80.4,110.9,80.8z M80.5,75.9c0.6,3,0.8,5.3,0.9,6.2c-0.2,0-0.3,0-0.5,0
			c-0.1,0-0.2,0-0.2,0C80.7,81.8,80.4,79.4,80.5,75.9z M84.9,108c-1,0.5-2.2,0.5-3.5,0.5l-0.5,0l-0.4,0c-1.3,0-2.5,0-3.5-0.6
			c-3.7-2-6-6.4-6-11.3c0-5.7,3.2-10.5,7.6-11.9c0.6,0.3,1.6,0.4,2.5,0.4c0.9,0,1.9-0.1,2.5-0.4c1.8,0.6,3.4,1.7,4.7,3.3
			c-0.8,2-1.3,4.1-1.3,6.3c0,3.2,0.9,6.2,2.6,8.8C88.3,105.3,86.7,107,84.9,108z M111.2,107.4c-2.3,1.4-5.1,1.4-8,1.4H103
			c-2.9,0-5.7,0-7.9-1.4c-4.6-2.8-7.3-7.7-7.3-13c0-5.2,2.8-10.2,7.2-13c1.5,0.5,5,0.6,8.1,0.6c3.1,0,6.6-0.1,8.1-0.6
			c4.5,2.8,7.2,7.6,7.2,13C118.4,99.7,115.7,104.6,111.2,107.4z M128.9,108.4h-10.1l-1-6.5c0-0.1,0-0.1-0.1-0.2
			c1.1-2.2,1.7-4.7,1.7-7.3c0-3.9-1.3-7.5-3.7-10.4L113,60.9l15.9-10.6V108.4z"/>
	</g>
</g>
<g id="Lampen">
	<g>
		<path class="st3" d="M91.7,88.8c-0.3-0.7-0.8-1.5-1.5-1.6c-0.2,0-0.7-0.1-1.3-0.1V0h-1.3v87.1c-0.5,0-0.9,0-1.1,0.1
			c-0.6,0.1-1.1,0.9-1.4,1.5c-0.9,0.3-4,1.3-6.3,3.5c-3.2,3.1-4.6,8.5-4,11.9c0.7,4,2.2,5.1,3.3,5.2c1.2,0.2,6.3,0.4,9.3,0.4
			c0.1,0,0.3,0,0.4,0c2.8,0,8-0.2,9.9-0.7c0.2,0,0.4-0.1,0.6-0.3c1.2-0.8,3-3.2,3-6.6C101.3,97.3,99.5,91.3,91.7,88.8z M86.7,88.1
			c0.4-0.1,2.5,0,3.4,0.1c0.1,0,0.2,0.1,0.3,0.2c-0.9-0.2-2.2-0.3-4-0.1C86.5,88.2,86.6,88.1,86.7,88.1z M87.8,108.2
			c-2.4,0-6.4-0.2-8.4-0.3c3-1.1,9.5-2.8,16.2-0.1C93.3,108.1,90,108.2,87.8,108.2z M97.6,107.5c-0.1,0.1-0.2,0.1-0.2,0.1
			c0,0,0,0-0.1,0c-8.6-4.3-17.6-1-19.6-0.1c-0.7-0.6-1.2-1.9-1.5-3.8c-0.5-3,0.7-7.9,3.6-10.6c2.4-2.3,5.9-3.2,5.9-3.2
			c0.9-0.2,1.7-0.3,2.5-0.3c1.6,0,2.7,0.3,2.7,0.4c0.1,0,0.2,0.1,0.3,0.1c0.1,0.1,0.2,0.1,0.3,0.1c0,0,0,0,0,0
			c6.8,2.4,8.3,7.7,8.4,11.8C100,104.9,98.5,106.9,97.6,107.5z"/>
		<path class="st3" d="M123.7,88.8c-0.3-0.7-0.8-1.5-1.5-1.6c-0.2,0-0.7-0.1-1.3-0.1V0h-1.3v87.1c-0.5,0-0.9,0-1.1,0.1
			c-0.6,0.1-1.1,0.9-1.4,1.5c-0.9,0.3-4,1.3-6.3,3.5c-3.2,3.1-4.6,8.5-4,11.9c0.7,4,2.2,5.1,3.3,5.2c1.2,0.2,6.3,0.4,9.3,0.4
			c0.1,0,0.3,0,0.4,0c2.8,0,8-0.2,9.9-0.7c0.2,0,0.4-0.1,0.6-0.3c1.2-0.8,3-3.2,3-6.6C133.3,97.3,131.5,91.3,123.7,88.8z
			 M118.7,88.1c0.4-0.1,2.5,0,3.4,0.1c0.1,0,0.2,0.1,0.3,0.2c-0.9-0.2-2.2-0.3-4-0.1C118.5,88.2,118.6,88.1,118.7,88.1z
			 M119.8,108.2c-2.4,0-6.4-0.2-8.4-0.3c3-1.1,9.5-2.8,16.2-0.1C125.3,108.1,122,108.2,119.8,108.2z M129.6,107.5
			c-0.1,0.1-0.2,0.1-0.2,0.1c0,0,0,0-0.1,0c-8.6-4.3-17.6-1-19.6-0.1c-0.7-0.6-1.2-1.9-1.5-3.8c-0.5-3,0.7-7.9,3.6-10.6
			c2.4-2.3,5.9-3.2,5.9-3.2c0.9-0.2,1.7-0.3,2.5-0.3c1.6,0,2.7,0.3,2.7,0.4c0.1,0,0.2,0.1,0.3,0.1c0.1,0.1,0.2,0.1,0.3,0.1
			c0,0,0,0,0,0c6.8,2.4,8.3,7.7,8.4,11.8C132,104.9,130.5,106.9,129.6,107.5z"/>
		<path class="st3" d="M155.7,88.8c-0.3-0.7-0.8-1.5-1.5-1.6c-0.2,0-0.7-0.1-1.3-0.1V0h-1.3v87.1c-0.5,0-0.9,0-1.1,0.1
			c-0.6,0.1-1.1,0.9-1.4,1.5c-0.9,0.3-4,1.3-6.3,3.5c-3.2,3.1-4.6,8.5-4,11.9c0.7,4,2.2,5.1,3.3,5.2c1.2,0.2,6.3,0.4,9.3,0.4
			c0.1,0,0.3,0,0.4,0c2.8,0,8-0.2,9.9-0.7c0.2,0,0.4-0.1,0.6-0.3c1.2-0.8,3-3.2,3-6.6C165.3,97.3,163.5,91.3,155.7,88.8z
			 M150.7,88.1c0.4-0.1,2.5,0,3.4,0.1c0.1,0,0.2,0.1,0.3,0.2c-0.9-0.2-2.2-0.3-4-0.1C150.5,88.2,150.6,88.1,150.7,88.1z
			 M151.8,108.2c-2.4,0-6.4-0.2-8.4-0.3c3-1.1,9.5-2.8,16.2-0.1C157.3,108.1,154,108.2,151.8,108.2z M161.6,107.5
			c-0.1,0.1-0.2,0.1-0.2,0.1c0,0,0,0-0.1,0c-8.6-4.3-17.6-1-19.6-0.1c-0.7-0.6-1.2-1.9-1.5-3.8c-0.5-3,0.7-7.9,3.6-10.6
			c2.4-2.3,5.9-3.2,5.9-3.2c0.9-0.2,1.7-0.3,2.5-0.3c1.6,0,2.7,0.3,2.7,0.4c0.1,0,0.2,0.1,0.3,0.1c0.1,0.1,0.2,0.1,0.3,0.1
			c0,0,0,0,0,0c6.8,2.4,8.3,7.7,8.4,11.8C164,104.9,162.5,106.9,161.6,107.5z"/>
	</g>
</g>
</svg>
